test_r_type.vcd
$date
	Sun Jul 13 03:18:15 2025
$end
$version
	Icarus Verilog
$end
$timescale
	1ps
$end
$scope module test_r_type $end
$var wire 2 ! store_size_control [1:0] $end
$var wire 5 " shamt [4:0] $end
$var wire 5 # rt [4:0] $end
$var wire 5 $ rs [4:0] $end
$var wire 1 % reg_write $end
$var wire 1 & reg_dst $end
$var wire 5 ' rd [4:0] $end
$var wire 1 ( pc_write_cond $end
$var wire 1 ) pc_write $end
$var wire 2 * pc_source [1:0] $end
$var wire 6 + opcode [5:0] $end
$var wire 1 , mem_write $end
$var wire 1 - mem_to_reg $end
$var wire 1 . mem_read $end
$var wire 2 / load_size_control [1:0] $end
$var wire 1 0 jump $end
$var wire 16 1 immediate [15:0] $end
$var wire 6 2 funct [5:0] $end
$var wire 5 3 current_state [4:0] $end
$var wire 1 4 branch $end
$var wire 1 5 alu_zero $end
$var wire 1 6 alu_src $end
$var wire 1 7 alu_overflow $end
$var wire 4 8 alu_op [3:0] $end
$var wire 4 9 alu_control [3:0] $end
$var wire 26 : address [25:0] $end
$var reg 1 ; clk $end
$var reg 1 < div_zero $end
$var reg 32 = instruction [31:0] $end
$var reg 1 > overflow $end
$var reg 1 ? reset $end
$var reg 1 @ zero_flag $end
$scope module uut $end
$var wire 1 ; clk $end
$var wire 5 A current_state [4:0] $end
$var wire 1 < div_zero $end
$var wire 32 B instruction [31:0] $end
$var wire 1 > overflow $end
$var wire 1 ? reset $end
$var wire 1 @ zero_flag $end
$var parameter 6 C FUNCT_ADD $end
$var parameter 6 D FUNCT_AND $end
$var parameter 6 E FUNCT_DIV $end
$var parameter 6 F FUNCT_JR $end
$var parameter 6 G FUNCT_MFHI $end
$var parameter 6 H FUNCT_MFLO $end
$var parameter 6 I FUNCT_MULT $end
$var parameter 6 J FUNCT_SLL $end
$var parameter 6 K FUNCT_SLT $end
$var parameter 6 L FUNCT_SRA $end
$var parameter 6 M FUNCT_SUB $end
$var parameter 6 N FUNCT_XCHG $end
$var parameter 6 O OP_ADDI $end
$var parameter 6 P OP_BEQ $end
$var parameter 6 Q OP_BNE $end
$var parameter 6 R OP_J $end
$var parameter 6 S OP_JAL $end
$var parameter 6 T OP_LB $end
$var parameter 6 U OP_LUI $end
$var parameter 6 V OP_LW $end
$var parameter 6 W OP_SB $end
$var parameter 6 X OP_SLLM $end
$var parameter 6 Y OP_SW $end
$var parameter 6 Z OP_TYPE_R $end
$var parameter 5 [ ST_ADD $end
$var parameter 5 \ ST_ADDI $end
$var parameter 5 ] ST_AND $end
$var parameter 5 ^ ST_BEQ $end
$var parameter 5 _ ST_BNE $end
$var parameter 5 ` ST_DECODE $end
$var parameter 5 a ST_DIV $end
$var parameter 5 b ST_DIV0 $end
$var parameter 5 c ST_FETCH $end
$var parameter 5 d ST_J $end
$var parameter 5 e ST_JAL $end
$var parameter 5 f ST_JR $end
$var parameter 5 g ST_LB $end
$var parameter 5 h ST_LUI $end
$var parameter 5 i ST_LW $end
$var parameter 5 j ST_MFHI $end
$var parameter 5 k ST_MFLO $end
$var parameter 5 l ST_MULT $end
$var parameter 5 m ST_OPCODE404 $end
$var parameter 5 n ST_OVERFLOW $end
$var parameter 5 o ST_RESET $end
$var parameter 5 p ST_SB $end
$var parameter 5 q ST_SLL $end
$var parameter 5 r ST_SLLM $end
$var parameter 5 s ST_SLT $end
$var parameter 5 t ST_SRA $end
$var parameter 5 u ST_SUB $end
$var parameter 5 v ST_SW $end
$var parameter 5 w ST_XCHG $end
$var reg 26 x address [25:0] $end
$var reg 4 y alu_control [3:0] $end
$var reg 4 z alu_op [3:0] $end
$var reg 1 7 alu_overflow $end
$var reg 1 6 alu_src $end
$var reg 1 5 alu_zero $end
$var reg 1 4 branch $end
$var reg 5 { counter [4:0] $end
$var reg 6 | funct [5:0] $end
$var reg 16 } immediate [15:0] $end
$var reg 1 0 jump $end
$var reg 2 ~ load_size_control [1:0] $end
$var reg 1 . mem_read $end
$var reg 1 - mem_to_reg $end
$var reg 1 , mem_write $end
$var reg 6 !" opcode [5:0] $end
$var reg 2 "" pc_source [1:0] $end
$var reg 1 ) pc_write $end
$var reg 1 ( pc_write_cond $end
$var reg 5 #" rd [4:0] $end
$var reg 1 & reg_dst $end
$var reg 1 % reg_write $end
$var reg 5 $" rs [4:0] $end
$var reg 5 %" rt [4:0] $end
$var reg 5 &" shamt [4:0] $end
$var reg 5 '" state [4:0] $end
$var reg 2 (" store_size_control [1:0] $end
$scope task decode_instruction $end
$upscope $end
$scope task handle_add_state $end
$upscope $end
$scope task handle_addi_state $end
$upscope $end
$scope task handle_and_state $end
$upscope $end
$scope task handle_beq_state $end
$upscope $end
$scope task handle_bne_state $end
$upscope $end
$scope task handle_decode_state $end
$upscope $end
$scope task handle_div0_state $end
$upscope $end
$scope task handle_div_state $end
$upscope $end
$scope task handle_fetch_state $end
$upscope $end
$scope task handle_j_state $end
$upscope $end
$scope task handle_jal_state $end
$upscope $end
$scope task handle_jr_state $end
$upscope $end
$scope task handle_lb_state $end
$upscope $end
$scope task handle_lui_state $end
$upscope $end
$scope task handle_lw_state $end
$upscope $end
$scope task handle_mfhi_state $end
$upscope $end
$scope task handle_mflo_state $end
$upscope $end
$scope task handle_mult_state $end
$upscope $end
$scope task handle_opcode404_state $end
$upscope $end
$scope task handle_overflow_state $end
$upscope $end
$scope task handle_reset_state $end
$upscope $end
$scope task handle_sb_state $end
$upscope $end
$scope task handle_sll_state $end
$upscope $end
$scope task handle_sllm_state $end
$upscope $end
$scope task handle_slt_state $end
$upscope $end
$scope task handle_sra_state $end
$upscope $end
$scope task handle_sub_state $end
$upscope $end
$scope task handle_sw_state $end
$upscope $end
$scope task handle_xchg_state $end
$upscope $end
$scope task reset_control_signals $end
$upscope $end
$upscope $end
$scope task execute_addiu $end
$var reg 16 )" imm [15:0] $end
$var reg 5 *" rs [4:0] $end
$var reg 5 +" rt [4:0] $end
$upscope $end
$scope task execute_r_type $end
$var reg 6 ," funct [5:0] $end
$var reg 5 -" rd [4:0] $end
$var reg 5 ." rs [4:0] $end
$var reg 5 /" rt [4:0] $end
$var reg 5 0" shamt [4:0] $end
$upscope $end
$scope task reset_system $end
$upscope $end
$scope task wait_cycles $end
$var integer 32 1" cycles [31:0] $end
$upscope $end
$scope task wait_mult_div_operation $end
$upscope $end
$upscope $end
$enddefinitions $end
$comment Show the parameter values. $end
$dumpall
b1110 w
b10111 v
b1101 u
b1100 t
b1011 s
b10010 r
b1010 q
b10110 p
b0 o
b11010 n
b11011 m
b110 l
b1001 k
b1000 j
b10101 i
b10100 h
b10011 g
b111 f
b11001 e
b11000 d
b1 c
b11100 b
b101 a
b10 `
b10001 _
b10000 ^
b100 ]
b1111 \
b11 [
b0 Z
b101011 Y
b1 X
b101000 W
b100011 V
b1111 U
b100000 T
b11 S
b10 R
b101 Q
b100 P
b1000 O
b101 N
b100010 M
b11 L
b101010 K
b0 J
b11000 I
b10010 H
b10000 G
b1000 F
b11010 E
b100100 D
b100000 C
$end
#0
$dumpvars
bx 1"
bx 0"
bx /"
bx ."
bx -"
bx ,"
bx +"
bx *"
bx )"
bx ("
b0 '"
b0 &"
b0 %"
b0 $"
b0 #"
bx ""
b0 !"
bx ~
b0 }
b0 |
bx {
bx z
b0 y
b0 x
b0 B
b0 A
0@
1?
0>
b0 =
0<
0;
b0 :
b0 9
bx 8
x7
x6
x5
x4
b0 3
b0 2
b0 1
x0
bx /
x.
x-
x,
b0 +
bx *
x)
x(
b0 '
x&
x%
b0 $
b0 #
b0 "
bx !
$end
#5000
b0 {
1;
#10000
0;
#15000
1;
#20000
0;
0?
#25000
b1 3
b1 A
b1 '"
07
05
b0 *
b0 ""
0(
0)
b0 !
b0 ("
b0 /
b0 ~
0%
06
0,
b0 8
b0 z
0-
0.
04
00
0&
1;
#30000
b10000000000001101 :
b10000000000001101 x
b1101 1
b1101 }
b1101 2
b1101 |
b1 #
b1 %"
b1001 +
b1001 !"
0;
b100 1"
b100100000000010000000000001101 =
b100100000000010000000000001101 B
b1101 )"
b0 *"
b1 +"
#35000
b10 3
b10 A
b10 '"
1)
1.
1;
#40000
0;
#45000
b11011 3
b11011 A
b11011 '"
0)
0.
1;
#50000
0;
#55000
b1 3
b1 A
b1 '"
b11 *
b11 ""
1)
1;
#60000
0;
#65000
b100000000000001010 :
b100000000000001010 x
b1010 1
b1010 }
b1010 2
b1010 |
b10 #
b10 %"
b10 3
b10 A
b10 '"
1.
b0 *
b0 ""
1)
b100100000000100000000000001010 =
b100100000000100000000000001010 B
b1010 )"
b10 +"
1;
#70000
0;
#75000
b11011 3
b11011 A
b11011 '"
0)
0.
1;
#80000
0;
#85000
b1 3
b1 A
b1 '"
b11 *
b11 ""
1)
1;
#90000
0;
#95000
b10 3
b10 A
b10 '"
1.
b0 *
b0 ""
1)
1;
#100000
0;
#105000
b1000100001100000100100 :
b1000100001100000100100 x
b1100000100100 1
b1100000100100 }
b100100 2
b100100 |
b11 '
b11 #"
b1 $
b1 $"
b0 +
b0 !"
b11011 3
b11011 A
b11011 '"
0)
0.
b1000100001100000100100 =
b1000100001100000100100 B
b100100 ,"
b0 0"
b11 -"
b10 /"
b1 ."
1;
#110000
0;
#115000
b1 3
b1 A
b1 '"
b11 *
b11 ""
1)
1;
#120000
0;
#125000
b10 3
b10 A
b10 '"
1.
b0 *
b0 ""
1)
1;
#130000
0;
#135000
b100 3
b100 A
b100 '"
0)
0.
1;
#140000
0;
#145000
b0 :
b0 x
b0 1
b0 }
b0 2
b0 |
b0 '
b0 #"
b0 #
b0 %"
b0 $
b0 $"
b1 3
b1 A
b1 '"
1%
1&
b0 =
b0 B
1?
1;
#150000
0;
#155000
b0 3
b0 A
b0 '"
1;
#160000
0;
#165000
b1 3
b1 A
b1 '"
0%
0&
1;
0?
#170000
0;
#175000
b10 3
b10 A
b10 '"
1)
1.
b10000000000010111 :
b10000000000010111 x
b10111 1
b10111 }
b10111 2
b10111 |
b1 #
b1 %"
b1001 +
b1001 !"
1;
b100100000000010000000000010111 =
b100100000000010000000000010111 B
b10111 )"
b1 +"
#180000
0;
#185000
b11011 3
b11011 A
b11011 '"
0)
0.
1;
#190000
0;
#195000
b1 3
b1 A
b1 '"
b11 *
b11 ""
1)
1;
#200000
0;
#205000
b100000000000000111 :
b100000000000000111 x
b111 1
b111 }
b111 2
b111 |
b10 #
b10 %"
b10 3
b10 A
b10 '"
1.
b0 *
b0 ""
1)
b100100000000100000000000000111 =
b100100000000100000000000000111 B
b111 )"
b10 +"
1;
#210000
0;
#215000
b11011 3
b11011 A
b11011 '"
0)
0.
1;
#220000
0;
#225000
b1 3
b1 A
b1 '"
b11 *
b11 ""
1)
1;
#230000
0;
#235000
b10 3
b10 A
b10 '"
1.
b0 *
b0 ""
1)
1;
#240000
0;
#245000
b1000100000000000011010 :
b1000100000000000011010 x
b11010 1
b11010 }
b11010 2
b11010 |
b1 $
b1 $"
b0 +
b0 !"
b11011 3
b11011 A
b11011 '"
0)
0.
b1000100000000000011010 =
b1000100000000000011010 B
b11010 ,"
b0 -"
1;
#250000
0;
#255000
b1 3
b1 A
b1 '"
b11 *
b11 ""
1)
1;
#260000
0;
#265000
b10 3
b10 A
b10 '"
1.
b0 *
b0 ""
1)
1;
#270000
0;
#275000
b101 3
b101 A
b101 '"
0)
0.
1;
#280000
0;
#285000
b1 3
b1 A
b1 '"
b10 1"
1;
#290000
0;
#295000
b10 3
b10 A
b10 '"
1)
1.
1;
#300000
0;
#305000
b1100000010000 :
b1100000010000 x
b1100000010000 1
b1100000010000 }
b10000 2
b10000 |
b11 '
b11 #"
b0 #
b0 %"
b0 $
b0 $"
b101 3
b101 A
b101 '"
0)
0.
b100 1"
b1100000010000 =
b1100000010000 B
b10000 ,"
b11 -"
b0 /"
b0 ."
1;
#310000
0;
#315000
b1 3
b1 A
b1 '"
1;
#320000
0;
#325000
b10 3
b10 A
b10 '"
1)
1.
1;
#330000
0;
#335000
b1000 3
b1000 A
b1000 '"
0)
0.
1;
#340000
0;
#345000
b10000000010010 :
b10000000010010 x
b10000000010010 1
b10000000010010 }
b10010 2
b10010 |
b100 '
b100 #"
b1 3
b1 A
b1 '"
1%
1&
b10000000010010 =
b10000000010010 B
b10010 ,"
b100 -"
1;
#350000
0;
#355000
b10 3
b10 A
b10 '"
1)
1.
0%
0&
1;
#360000
0;
#365000
b1001 3
b1001 A
b1001 '"
0)
0.
1;
#370000
0;
#375000
b1 3
b1 A
b1 '"
1%
1&
1;
#380000
0;
#385000
b0 :
b0 x
b0 1
b0 }
b0 2
b0 |
b0 '
b0 #"
b10 3
b10 A
b10 '"
1)
1.
0%
0&
b0 =
b0 B
1?
1;
#390000
0;
#395000
b0 3
b0 A
b0 '"
1;
#400000
0;
#405000
b1 3
b1 A
b1 '"
0)
0.
1;
0?
#410000
0;
#415000
b10 3
b10 A
b10 '"
1)
1.
b10000000000000100 :
b10000000000000100 x
b100 1
b100 }
b100 2
b100 |
b1 #
b1 %"
b1001 +
b1001 !"
1;
b100100000000010000000000000100 =
b100100000000010000000000000100 B
b100 )"
b1 +"
#420000
0;
#425000
b11011 3
b11011 A
b11011 '"
0)
0.
1;
#430000
0;
#435000
b1 3
b1 A
b1 '"
b11 *
b11 ""
1)
1;
#440000
0;
#445000
b100000000000000011 :
b100000000000000011 x
b11 1
b11 }
b11 2
b11 |
b10 #
b10 %"
b10 3
b10 A
b10 '"
1.
b0 *
b0 ""
1)
b100100000000100000000000000011 =
b100100000000100000000000000011 B
b11 )"
b10 +"
1;
#450000
0;
#455000
b11011 3
b11011 A
b11011 '"
0)
0.
1;
#460000
0;
#465000
b1 3
b1 A
b1 '"
b11 *
b11 ""
1)
1;
#470000
0;
#475000
b10 3
b10 A
b10 '"
1.
b0 *
b0 ""
1)
1;
#480000
0;
#485000
b1000100000000000011000 :
b1000100000000000011000 x
b11000 1
b11000 }
b11000 2
b11000 |
b1 $
b1 $"
b0 +
b0 !"
b11011 3
b11011 A
b11011 '"
0)
0.
b1000100000000000011000 =
b1000100000000000011000 B
b11000 ,"
b0 -"
b10 /"
b1 ."
1;
#490000
0;
#495000
b1 3
b1 A
b1 '"
b11 *
b11 ""
1)
1;
#500000
0;
#505000
b10 3
b10 A
b10 '"
1.
b0 *
b0 ""
1)
1;
#510000
0;
#515000
b110 3
b110 A
b110 '"
0)
0.
1;
#520000
0;
#525000
b1 3
b1 A
b1 '"
b10 1"
1;
#530000
0;
#535000
b10 3
b10 A
b10 '"
1)
1.
1;
#540000
0;
#545000
b1000000010000 :
b1000000010000 x
b1000000010000 1
b1000000010000 }
b10000 2
b10000 |
b10 '
b10 #"
b0 #
b0 %"
b0 $
b0 $"
b110 3
b110 A
b110 '"
0)
0.
b100 1"
b1000000010000 =
b1000000010000 B
b10000 ,"
b10 -"
b0 /"
b0 ."
1;
#550000
0;
#555000
b1 3
b1 A
b1 '"
1;
#560000
0;
#565000
b10 3
b10 A
b10 '"
1)
1.
1;
#570000
0;
#575000
b1000 3
b1000 A
b1000 '"
0)
0.
1;
#580000
0;
#585000
b100000010010 :
b100000010010 x
b100000010010 1
b100000010010 }
b10010 2
b10010 |
b1 '
b1 #"
b1 3
b1 A
b1 '"
1%
1&
b100000010010 =
b100000010010 B
b10010 ,"
b1 -"
1;
#590000
0;
#595000
b10 3
b10 A
b10 '"
1)
1.
0%
0&
1;
#600000
0;
#605000
b1001 3
b1001 A
b1001 '"
0)
0.
1;
#610000
0;
#615000
b1 3
b1 A
b1 '"
1%
1&
1;
#620000
0;
#625000
b0 :
b0 x
b0 1
b0 }
b0 2
b0 |
b0 '
b0 #"
b10 3
b10 A
b10 '"
1)
1.
0%
0&
b0 =
b0 B
1?
1;
#630000
0;
#635000
b0 3
b0 A
b0 '"
1;
#640000
0;
#645000
b1 3
b1 A
b1 '"
0)
0.
1;
0?
#650000
0;
#655000
b10 3
b10 A
b10 '"
1)
1.
b110000000000100000 :
b110000000000100000 x
b100000 1
b100000 }
b100000 2
b100000 |
b11 #
b11 %"
b1001 +
b1001 !"
1;
b100100000000110000000000100000 =
b100100000000110000000000100000 B
b100000 )"
b11 +"
#660000
0;
#665000
b11011 3
b11011 A
b11011 '"
0)
0.
1;
#670000
0;
#675000
b1 3
b1 A
b1 '"
b11 *
b11 ""
1)
1;
#680000
0;
#685000
b110001100100000000 :
b110001100100000000 x
b1100100000000 1
b1100100000000 }
b0 2
b0 |
b100 "
b100 &"
b11 '
b11 #"
b0 +
b0 !"
b10 3
b10 A
b10 '"
1.
b0 *
b0 ""
1)
b110001100100000000 =
b110001100100000000 B
b0 ,"
b100 0"
b11 -"
b11 /"
1;
#690000
0;
#695000
b1010 3
b1010 A
b1010 '"
0)
0.
1;
#700000
0;
#705000
b100 9
b100 y
b1 3
b1 A
b1 '"
1%
b100 8
b100 z
1&
1;
#710000
0;
#715000
b10 3
b10 A
b10 '"
1)
1.
b0 9
b0 y
0%
b0 8
b0 z
0&
1;
#720000
0;
#725000
b0 :
b0 x
b0 1
b0 }
b0 "
b0 &"
b0 '
b0 #"
b0 #
b0 %"
b1010 3
b1010 A
b1010 '"
0)
0.
b0 =
b0 B
1?
1;
#730000
0;
#735000
b0 3
b0 A
b0 '"
1;
#740000
0;
#745000
b1 3
b1 A
b1 '"
1;
0?
#750000
0;
#755000
b10 3
b10 A
b10 '"
1)
1.
b10000000000000011 :
b10000000000000011 x
b11 1
b11 }
b11 2
b11 |
b1 #
b1 %"
b1001 +
b1001 !"
1;
b100100000000010000000000000011 =
b100100000000010000000000000011 B
b11 )"
b1 +"
#760000
0;
#765000
b11011 3
b11011 A
b11011 '"
0)
0.
1;
#770000
0;
#775000
b1 3
b1 A
b1 '"
b11 *
b11 ""
1)
1;
#780000
0;
#785000
b100000000000000100 :
b100000000000000100 x
b100 1
b100 }
b100 2
b100 |
b10 #
b10 %"
b10 3
b10 A
b10 '"
1.
b0 *
b0 ""
1)
b100100000000100000000000000100 =
b100100000000100000000000000100 B
b100 )"
b10 +"
1;
#790000
0;
#795000
b11011 3
b11011 A
b11011 '"
0)
0.
1;
#800000
0;
#805000
b1 3
b1 A
b1 '"
b11 *
b11 ""
1)
1;
#810000
0;
#815000
b10 3
b10 A
b10 '"
1.
b0 *
b0 ""
1)
1;
#820000
0;
#825000
b1000100001100000101010 :
b1000100001100000101010 x
b1100000101010 1
b1100000101010 }
b101010 2
b101010 |
b11 '
b11 #"
b1 $
b1 $"
b0 +
b0 !"
b11011 3
b11011 A
b11011 '"
0)
0.
b1000100001100000101010 =
b1000100001100000101010 B
b101010 ,"
b0 0"
b10 /"
b1 ."
1;
#830000
0;
#835000
b1 3
b1 A
b1 '"
b11 *
b11 ""
1)
1;
#840000
0;
#845000
b10 3
b10 A
b10 '"
1.
b0 *
b0 ""
1)
1;
#850000
0;
#855000
b1011 3
b1011 A
b1011 '"
0)
0.
1;
#860000
0;
#865000
b111 9
b111 y
b10000100001100000101010 :
b10000100001100000101010 x
b10 $
b10 $"
b1 3
b1 A
b1 '"
1%
b111 8
b111 z
1&
b10000100001100000101010 =
b10000100001100000101010 B
b10 ."
1;
#870000
0;
#875000
b10 3
b10 A
b10 '"
1)
1.
b0 9
b0 y
0%
b0 8
b0 z
0&
1;
#880000
0;
#885000
b1011 3
b1011 A
b1011 '"
0)
0.
1;
#890000
0;
#895000
b111 9
b111 y
b1 3
b1 A
b1 '"
1%
b111 8
b111 z
1&
1;
#900000
0;
#905000
b110000000000000001 :
b110000000000000001 x
b1 1
b1 }
b1 2
b1 |
b0 '
b0 #"
b11 #
b11 %"
b0 $
b0 $"
b1001 +
b1001 !"
b10 3
b10 A
b10 '"
1)
1.
b0 9
b0 y
0%
b0 8
b0 z
0&
b100100000000110000000000000001 =
b100100000000110000000000000001 B
b1 )"
b11 +"
1;
#910000
0;
#915000
b11011 3
b11011 A
b11011 '"
0)
0.
1;
#920000
0;
#925000
b1 3
b1 A
b1 '"
b11 *
b11 ""
1)
1;
#930000
0;
#935000
b10 3
b10 A
b10 '"
1.
b0 *
b0 ""
1)
1;
#940000
0;
#945000
b10000010001100000101010 :
b10000010001100000101010 x
b1100000101010 1
b1100000101010 }
b101010 2
b101010 |
b11 '
b11 #"
b1 #
b1 %"
b10 $
b10 $"
b0 +
b0 !"
b11011 3
b11011 A
b11011 '"
0)
0.
b10000010001100000101010 =
b10000010001100000101010 B
b1 /"
1;
#950000
0;
#955000
b1 3
b1 A
b1 '"
b11 *
b11 ""
1)
1;
#960000
0;
#965000
b10 3
b10 A
b10 '"
1.
b0 *
b0 ""
1)
1;
#970000
0;
#975000
b1011 3
b1011 A
b1011 '"
0)
0.
1;
#980000
0;
#985000
b111 9
b111 y
b0 :
b0 x
b0 1
b0 }
b0 2
b0 |
b0 '
b0 #"
b0 #
b0 %"
b0 $
b0 $"
b1 3
b1 A
b1 '"
1%
b111 8
b111 z
1&
b0 =
b0 B
1?
1;
#990000
0;
#995000
b0 3
b0 A
b0 '"
1;
#1000000
0;
#1005000
b1 3
b1 A
b1 '"
b0 9
b0 y
0%
b0 8
b0 z
0&
1;
0?
#1010000
0;
#1015000
b10 3
b10 A
b10 '"
1)
1.
b11111111111111010 :
b11111111111111010 x
b1111111111111010 1
b1111111111111010 }
b111010 2
b111010 |
b11111 "
b11111 &"
b11111 '
b11111 #"
b1 #
b1 %"
b1001 +
b1001 !"
1;
b100100000000011111111111111010 =
b100100000000011111111111111010 B
b1111111111111010 )"
b1 +"
#1020000
0;
#1025000
b11011 3
b11011 A
b11011 '"
0)
0.
1;
#1030000
0;
#1035000
b1 3
b1 A
b1 '"
b11 *
b11 ""
1)
1;
#1040000
0;
#1045000
b10000100001000011 :
b10000100001000011 x
b100001000011 1
b100001000011 }
b11 2
b11 |
b1 "
b1 &"
b1 '
b1 #"
b0 +
b0 !"
b10 3
b10 A
b10 '"
1.
b0 *
b0 ""
1)
b10000100001000011 =
b10000100001000011 B
b11 ,"
b1 0"
b1 -"
b0 ."
1;
#1050000
0;
#1055000
b1100 3
b1100 A
b1100 '"
0)
0.
1;
#1060000
0;
#1065000
b101 9
b101 y
b1 3
b1 A
b1 '"
1%
b101 8
b101 z
1&
1;
#1070000
0;
#1075000
b10 3
b10 A
b10 '"
1)
1.
b0 9
b0 y
0%
b0 8
b0 z
0&
1;
#1080000
0;
#1085000
b0 :
b0 x
b0 1
b0 }
b0 2
b0 |
b0 "
b0 &"
b0 '
b0 #"
b0 #
b0 %"
b1100 3
b1100 A
b1100 '"
0)
0.
b0 =
b0 B
1?
1;
#1090000
0;
#1095000
b0 3
b0 A
b0 '"
1;
#1100000
0;
#1105000
b1 3
b1 A
b1 '"
1;
0?
#1110000
0;
#1115000
b10 3
b10 A
b10 '"
1)
1.
b10000000000001111 :
b10000000000001111 x
b1111 1
b1111 }
b1111 2
b1111 |
b1 #
b1 %"
b1001 +
b1001 !"
1;
b100100000000010000000000001111 =
b100100000000010000000000001111 B
b1111 )"
#1120000
0;
#1125000
b11011 3
b11011 A
b11011 '"
0)
0.
1;
#1130000
0;
#1135000
b1 3
b1 A
b1 '"
b11 *
b11 ""
1)
1;
#1140000
0;
#1145000
b100000000000001010 :
b100000000000001010 x
b1010 1
b1010 }
b1010 2
b1010 |
b10 #
b10 %"
b10 3
b10 A
b10 '"
1.
b0 *
b0 ""
1)
b100100000000100000000000001010 =
b100100000000100000000000001010 B
b1010 )"
b10 +"
1;
#1150000
0;
#1155000
b11011 3
b11011 A
b11011 '"
0)
0.
1;
#1160000
0;
#1165000
b1 3
b1 A
b1 '"
b11 *
b11 ""
1)
1;
#1170000
0;
#1175000
b10 3
b10 A
b10 '"
1.
b0 *
b0 ""
1)
1;
#1180000
0;
#1185000
b1000100001100000100010 :
b1000100001100000100010 x
b1100000100010 1
b1100000100010 }
b100010 2
b100010 |
b11 '
b11 #"
b1 $
b1 $"
b0 +
b0 !"
b11011 3
b11011 A
b11011 '"
0)
0.
b1000100001100000100010 =
b1000100001100000100010 B
b100010 ,"
b0 0"
b11 -"
b10 /"
b1 ."
1;
#1190000
0;
#1195000
b1 3
b1 A
b1 '"
b11 *
b11 ""
1)
1;
#1200000
0;
#1205000
b10 3
b10 A
b10 '"
1.
b0 *
b0 ""
1)
1;
#1210000
0;
#1215000
b1101 3
b1101 A
b1101 '"
0)
0.
1;
#1220000
0;
#1225000
b110 9
b110 y
b0 :
b0 x
b0 1
b0 }
b0 2
b0 |
b0 '
b0 #"
b0 #
b0 %"
b0 $
b0 $"
b1 3
b1 A
b1 '"
1%
b110 8
b110 z
1&
b0 =
b0 B
1?
1;
#1230000
0;
#1235000
b0 3
b0 A
b0 '"
1;
#1240000
0;
#1245000
b1 3
b1 A
b1 '"
b0 9
b0 y
0%
b0 8
b0 z
0&
1;
0?
#1250000
0;
#1255000
b10 3
b10 A
b10 '"
1)
1.
b10000000000000010 :
b10000000000000010 x
b10 1
b10 }
b10 2
b10 |
b1 #
b1 %"
b1001 +
b1001 !"
1;
b100100000000010000000000000010 =
b100100000000010000000000000010 B
b10 )"
b1 +"
#1260000
0;
#1265000
b11011 3
b11011 A
b11011 '"
0)
0.
1;
#1270000
0;
#1275000
b1 3
b1 A
b1 '"
b11 *
b11 ""
1)
1;
#1280000
0;
#1285000
b100000000000000011 :
b100000000000000011 x
b11 1
b11 }
b11 2
b11 |
b10 #
b10 %"
b10 3
b10 A
b10 '"
1.
b0 *
b0 ""
1)
b100100000000100000000000000011 =
b100100000000100000000000000011 B
b11 )"
b10 +"
1;
#1290000
0;
#1295000
b11011 3
b11011 A
b11011 '"
0)
0.
1;
#1300000
0;
#1305000
b1 3
b1 A
b1 '"
b11 *
b11 ""
1)
1;
#1310000
0;
#1315000
b10 3
b10 A
b10 '"
1.
b0 *
b0 ""
1)
1;
#1320000
0;
#1325000
b1000100000000000000101 :
b1000100000000000000101 x
b101 1
b101 }
b101 2
b101 |
b1 $
b1 $"
b0 +
b0 !"
b11011 3
b11011 A
b11011 '"
0)
0.
b1000100000000000000101 =
b1000100000000000000101 B
b101 ,"
b0 -"
1;
#1330000
0;
#1335000
b1 3
b1 A
b1 '"
b11 *
b11 ""
1)
1;
#1340000
0;
#1345000
b10 3
b10 A
b10 '"
1.
b0 *
b0 ""
1)
1;
#1350000
0;
#1355000
b1110 3
b1110 A
b1110 '"
0)
0.
1;
#1360000
0;
#1365000
b0 :
b0 x
b0 1
b0 }
b0 2
b0 |
b0 #
b0 %"
b0 $
b0 $"
b1 3
b1 A
b1 '"
1%
1&
b0 =
b0 B
1?
1;
#1370000
0;
#1375000
b0 3
b0 A
b0 '"
1;
#1380000
0;
#1385000
b1 3
b1 A
b1 '"
0%
0&
1;
0?
#1390000
0;
#1395000
b10 3
b10 A
b10 '"
1)
1.
b10000000000001010 :
b10000000000001010 x
b1010 1
b1010 }
b1010 2
b1010 |
b1 #
b1 %"
b1001 +
b1001 !"
1;
b100100000000010000000000001010 =
b100100000000010000000000001010 B
b1010 )"
b1 +"
#1400000
0;
#1405000
b11011 3
b11011 A
b11011 '"
0)
0.
1;
#1410000
0;
#1415000
b1 3
b1 A
b1 '"
b11 *
b11 ""
1)
1;
#1420000
0;
#1425000
b100000000000000101 :
b100000000000000101 x
b101 1
b101 }
b101 2
b101 |
b10 #
b10 %"
b10 3
b10 A
b10 '"
1.
b0 *
b0 ""
1)
b100100000000100000000000000101 =
b100100000000100000000000000101 B
b101 )"
b10 +"
1;
#1430000
0;
#1435000
b11011 3
b11011 A
b11011 '"
0)
0.
1;
#1440000
0;
#1445000
b1 3
b1 A
b1 '"
b11 *
b11 ""
1)
1;
#1450000
0;
#1455000
b10 3
b10 A
b10 '"
1.
b0 *
b0 ""
1)
1;
#1460000
0;
#1465000
b1000100001100000100000 :
b1000100001100000100000 x
b1100000100000 1
b1100000100000 }
b100000 2
b100000 |
b11 '
b11 #"
b1 $
b1 $"
b0 +
b0 !"
b11011 3
b11011 A
b11011 '"
0)
0.
b1000100001100000100000 =
b1000100001100000100000 B
b100000 ,"
b11 -"
1;
#1470000
0;
#1475000
b1 3
b1 A
b1 '"
b11 *
b11 ""
1)
1;
#1480000
0;
#1485000
b10 3
b10 A
b10 '"
1.
b0 *
b0 ""
1)
1;
#1490000
0;
#1495000
b11 3
b11 A
b11 '"
0)
0.
1;
#1500000
0;
#1505000
b10 9
b10 y
b0 :
b0 x
b0 1
b0 }
b0 2
b0 |
b0 '
b0 #"
b0 #
b0 %"
b0 $
b0 $"
b1 3
b1 A
b1 '"
1%
b10 8
b10 z
1&
b0 =
b0 B
1?
1;
#1510000
0;
#1515000
b0 3
b0 A
b0 '"
1;
#1520000
0;
#1525000
b1 3
b1 A
b1 '"
b0 9
b0 y
0%
b0 8
b0 z
0&
1;
0?
#1530000
0;
#1535000
b10 3
b10 A
b10 '"
1)
1.
b111110000000001100100 :
b111110000000001100100 x
b1100100 1
b1100100 }
b100100 2
b100100 |
b1 "
b1 &"
b11111 #
b11111 %"
b1001 +
b1001 !"
1;
b100100000111110000000001100100 =
b100100000111110000000001100100 B
b1100100 )"
b11111 +"
#1540000
0;
#1545000
b11011 3
b11011 A
b11011 '"
0)
0.
1;
#1550000
0;
#1555000
b1 3
b1 A
b1 '"
b11 *
b11 ""
1)
1;
#1560000
0;
#1565000
b11111000000000000000001000 :
b11111000000000000000001000 x
b1000 1
b1000 }
b1000 2
b1000 |
b0 "
b0 &"
b0 #
b0 %"
b11111 $
b11111 $"
b0 +
b0 !"
b10 3
b10 A
b10 '"
1.
b0 *
b0 ""
1)
b11111000000000000000001000 =
b11111000000000000000001000 B
b1000 ,"
b0 -"
b0 /"
b11111 ."
1;
#1570000
0;
#1575000
b111 3
b111 A
b111 '"
0)
0.
1;
#1580000
0;
